State Group	ID	Name			Wwise Object Path	Notes
	863150862	BGM_filter			\Default Work Unit\BGM_filter	

State	ID	Name	State Group			Notes
	748895195	None	BGM_filter			
	2680780720	LPF_08	BGM_filter			
	2680780721	LPF_09	BGM_filter			
	2680780729	LPF_01	BGM_filter			
	2680780730	LPF_02	BGM_filter			
	2680780731	LPF_03	BGM_filter			
	2680780732	LPF_04	BGM_filter			
	2680780733	LPF_05	BGM_filter			
	2680780734	LPF_06	BGM_filter			
	2680780735	LPF_07	BGM_filter			
	2697558313	LPF_12	BGM_filter			
	2697558314	LPF_11	BGM_filter			
	2697558315	LPF_10	BGM_filter			

Audio Bus	ID	Name			Wwise Object Path	Notes
	805203703	Master Secondary Bus			\Default Work Unit\Master Secondary Bus	
	3803692087	Master Audio Bus			\Default Work Unit\Master Audio Bus	

